{
  "$schema": "../../bot.config.schema.json",
  "description": "A bot to help you get started",
  "active": true,
  "version": "1.0.0",
  "author": "Botpress, Inc.",
  "license": "AGPL-3.0",
  "imports": {
    "modules": [],
    "incomingMiddleware": [],
    "outgoingMiddleware": []
  },
  "dialog": {
    "timeoutInterval": "5m"
  },
  "logs": {
    "expiration": "1 week"
  },
  "defaultLanguage": "vi",
  "languages": ["vi"]
}
