[
  {
    "id": "builtin_image-QfbmGN",
    "formData": {
      "typing$vi": true,
      "title$vi": "Ảnh từ Curiosity Mars Rover",
      "image$vi": "{{{temp.roverImageUrl}}}"
    },
    "createdBy": "admin",
    "createdOn": "2021-09-21T16:19:03.034Z",
    "modifiedOn": "2021-09-21T16:19:03.034Z"
  }
]
